Betke-Briana-ADA-Homework-2
…
The QQ plots of zombies killed and years of education

Step 5. Single sample of distribution of size 30

(Zombie30 <- sample_n(d, 30))

## # A tibble: 30 x 10
##       id first_name last_name gender height weight zombies_killed
##    <dbl> <chr>      <chr>     <chr>   <dbl>  <dbl>          <dbl>
##  1   648 Jerry      Young     Male     65.9   141.              1
##  2   789 George     Willis    Male     74.5   167.              3
##  3   310 Steve      Hill      Male     71.0   155.              4
##  4   497 Sara       Harper    Female   62.6   135.              3
##  5   671 Lisa       Harper    Female   65.8   135.              2
##  6   284 Frances    Cook      Female   58.1   111.              3
##  7   319 Amy        Matthews  Female   64.5   130.              0
##  8    15 Donald     Murray    Male     65.7   121.              4
##  9   730 Emily      Mendoza   Female   65.5   134.              4
## 10   620 Sarah      Mills     Female   62.5   117.              3
## #  with 20 more rows, and 3 more variables: years_of_education <dbl>,
## #   major <chr>, age <dbl>
…
## [1] 18.48101 19.80132

Step 7. # 99 samples of size 30

k <- 99 # number of samples
n <- 30 # size of each sample
s <- list(length = k) # create a dummy variable to hold each sample
for (i in 1:k) {
  s[[i]] <- sample(d, size = n, replace = FALSE)
}
head(s)

## $length
## # A tibble: 30 x 11
##       id first_name last_name gender height weight zombies_killed
##    <dbl> <chr>      <chr>     <chr>   <dbl>  <dbl>          <dbl>
##  1   642 Joyce      Kennedy   Female   69.8  149.               1
##  2   169 Rose       Mccoy     Female   70.3  144.               2
##  3   511 Ann        Rivera    Female   57.6   97.7              4
##  4   304 Robert     Parker    Male     73.6  161.               3
##  5   738 Kathy      Jenkins   Female   64.7  134.               4
##  6   489 Patricia   Peters    Female   58.5   93.8              6
##  7   131 Sandra     Myers     Female   70.1  158.               2
##  8   402 Phyllis    Carr      Female   71.0  153.               6
##  9   435 Thomas     Phillips  Male     80.5  187.               3
## 10   295 Adam       Perez     Male     66.4  143.               3
## #  with 20 more rows, and 4 more variables: years_of_education <dbl>,
## #   major <chr>, age <dbl>, orig.id <chr>
## 
## [[2]]
## # A tibble: 30 x 11
##       id first_name last_name gender height weight zombies_killed
##    <dbl> <chr>      <chr>     <chr>   <dbl>  <dbl>          <dbl>
##  1   689 Irene      Sims      Female   65.8   130.              7
##  2    97 Ryan       Davis     Male     65.1   133.              2
##  3   309 Tammy      Porter    Female   64.9   124.              2
##  4   756 Amanda     Rogers    Female   60.7   124.              2
##  5   111 Wanda      Russell   Female   69.9   134.              3
##  6   897 Janet      Meyer     Female   66.8   167.              2
##  7   541 Roger      Gray      Male     63.2   157.              1
##  8   597 Linda      Patterson Female   63.1   106.              2
##  9   688 Roy        Alexander Male     74.5   156.              3
## 10   518 Jacqueline Cole      Female   67.3   142.              6
## #  with 20 more rows, and 4 more variables: years_of_education <dbl>,
## #   major <chr>, age <dbl>, orig.id <chr>
## 
## [[3]]
## # A tibble: 30 x 11
##       id first_name last_name gender height weight zombies_killed
##    <dbl> <chr>      <chr>     <chr>   <dbl>  <dbl>          <dbl>
##  1   176 Amanda     Burton    Female   63.6   139.              4
##  2   588 Wayne      Howell    Male     65.7   127.              2
##  3   444 Gary       Kelly     Male     72.4   160.              0
##  4   900 Lillian    Chapman   Female   71.0   163.              2
##  5   460 Linda      Rose      Female   60.2   118.              0
##  6   838 Kelly      Alexander Female   59.3   120.              3
##  7   356 Larry      Simpson   Male     70.4   134.              2
##  8   189 Heather    Hernandez Female   70.4   131.              4
##  9   506 Margaret   Hart      Female   68.0   156.              1
## 10   582 Matthew    Murray    Male     64.1   136.              3
## #  with 20 more rows, and 4 more variables: years_of_education <dbl>,
## #   major <chr>, age <dbl>, orig.id <chr>
## 
## [[4]]
## # A tibble: 30 x 11
##       id first_name last_name gender height weight zombies_killed
##    <dbl> <chr>      <chr>     <chr>   <dbl>  <dbl>          <dbl>
##  1   515 Doris      Rose      Female   70.8   147.              2
##  2   658 Martha     Fuller    Female   70.4   143.              5
##  3   814 Chris      Burns     Male     68.8   173.              1
##  4    43 Douglas    Smith     Male     74.2   201.              7
##  5   763 Fred       Perkins   Male     70.8   155.              2
##  6   623 Kimberly   Hicks     Female   69.5   137.              2
##  7   664 Roy        Arnold    Male     78.6   169.              2
##  8   508 Andrea     Hicks     Female   60.6   116.              4
##  9   539 Timothy    Knight    Male     67.0   162.              2
## 10   260 Barbara    Hunt      Female   64.7   131.              1
## #  with 20 more rows, and 4 more variables: years_of_education <dbl>,
## #   major <chr>, age <dbl>, orig.id <chr>
## 
## [[5]]
## # A tibble: 30 x 11
##       id first_name last_name gender height weight zombies_killed
##    <dbl> <chr>      <chr>     <chr>   <dbl>  <dbl>          <dbl>
##  1   626 Teresa     Peterson  Female   71.6   150.              2
##  2   449 Jeremy     Riley     Male     64.9   133.              2
##  3   182 Charles    Duncan    Male     62.3   116.              4
##  4   700 Jack       Little    Male     79.9   211.              1
##  5   257 Aaron      Medina    Male     68.9   154.              4
##  6   101 Gerald     Alvarez   Male     72.3   165.              3
##  7    13 Alan       Olson     Male     66.7   134.              2
##  8   161 Kathryn    Schmidt   Female   67.7   143.              5
##  9   784 Steve      Cooper    Male     75.6   173.              3
## 10   100 Ralph      Cooper    Male     65.7   116.              5
## #  with 20 more rows, and 4 more variables: years_of_education <dbl>,
## #   major <chr>, age <dbl>, orig.id <chr>
## 
## [[6]]
## # A tibble: 30 x 11
##       id first_name last_name gender height weight zombies_killed
##    <dbl> <chr>      <chr>     <chr>   <dbl>  <dbl>          <dbl>
##  1   609 Steve      Flores    Male     73.9   154.              1
##  2   282 Joe        Burton    Male     68.6   149.              3
##  3   152 Anne       Hernandez Female   62.6   123.              0
##  4   766 Carlos     Hart      Male     69.7   162.              2
##  5   353 Teresa     King      Female   72.1   169.              1
##  6    43 Douglas    Smith     Male     74.2   201.              7
##  7    85 Anthony    Burton    Male     69.1   163.              3
##  8   558 James      Arnold    Male     66.8   138.              3
##  9   929 Raymond    Ferguson  Male     64.2   119.              6
## 10   714 Edward     Day       Male     66.3   159.              3
## #  with 20 more rows, and 4 more variables: years_of_education <dbl>,
## #   major <chr>, age <dbl>, orig.id <chr>
…
